<?xml version="1.0" encoding="utf-8"?>
<!-- Generator: Adobe Illustrator 17.0.0, SVG Export Plug-In . SVG Version: 6.00 Build 0)  -->
<!DOCTYPE svg PUBLIC "-//W3C//DTD SVG 1.1//EN" "http://www.w3.org/Graphics/SVG/1.1/DTD/svg11.dtd">
<svg version="1.1" id="Camada_1" xmlns="http://www.w3.org/2000/svg" xmlns:xlink="http://www.w3.org/1999/xlink" x="0px" y="0px"
	 width="280px" height="190px" viewBox="0 0 280 190" enable-background="new 0 0 280 190" xml:space="preserve">
<g>
	<g>
		<g>
			<path fill="#010202" d="M39.931,137.389c-0.77-0.838-1.183-2.17-1.237-3.997l3.128-0.471c0.013,1.05,0.14,1.803,0.378,2.26
				c0.238,0.457,0.596,0.685,1.073,0.685c0.613,0,0.92-0.401,0.92-1.206c0-0.641-0.147-1.192-0.44-1.656
				c-0.293-0.463-0.753-0.961-1.38-1.492l-1.432-1.248c-0.709-0.6-1.257-1.236-1.646-1.911c-0.388-0.675-0.583-1.476-0.583-2.403
				c0-1.391,0.412-2.46,1.237-3.21s1.959-1.125,3.405-1.125c1.567,0,2.634,0.457,3.2,1.37c0.566,0.914,0.869,2.024,0.91,3.333
				l-3.149,0.389c-0.027-0.858-0.106-1.476-0.235-1.851s-0.412-0.562-0.849-0.562c-0.313,0-0.555,0.133-0.726,0.399
				c-0.171,0.266-0.256,0.562-0.256,0.889c0,0.56,0.126,1.03,0.378,1.411c0.252,0.382,0.658,0.818,1.217,1.309l1.37,1.207
				c0.818,0.694,1.452,1.431,1.902,2.208s0.675,1.697,0.675,2.761c0,0.776-0.181,1.482-0.542,2.116s-0.869,1.135-1.523,1.503
				s-1.411,0.552-2.27,0.552C41.876,138.646,40.701,138.227,39.931,137.389z"/>
			<path fill="#010202" d="M49.572,121.839h7.443v2.494h-3.783v4.11h2.883v2.535h-2.883v4.948h3.823v2.475h-7.483V121.839z"/>
			<path fill="#010202" d="M58.937,121.839h3.926l1.82,9.631l1.963-9.631h3.783l0.286,16.562h-2.597l-0.307-11.021l-1.922,11.021
				h-2.311l-2.044-11.104l-0.246,11.104H58.65L58.937,121.839z"/>
			<path fill="#010202" d="M75.438,121.839h4.171l3.088,16.562h-3.374l-0.552-3.497h-2.433l-0.572,3.497h-3.456L75.438,121.839z
				 M78.423,132.717l-0.879-6.462l-0.879,6.462H78.423z"/>
			<path fill="#010202" d="M84.374,121.839h2.576l3.395,7.975v-7.975h3.026v16.562h-2.474l-3.394-8.588v8.588h-3.128V121.839z"/>
			<path fill="#010202" d="M98.175,121.839h4.171l3.088,16.562h-3.374l-0.552-3.497h-2.433l-0.572,3.497h-3.456L98.175,121.839z
				 M101.161,132.717l-0.879-6.462l-0.879,6.462H101.161z"/>
			<path fill="#010202" d="M135.614,121.839h4.171l3.088,16.562h-3.374l-0.552-3.497h-2.433l-0.572,3.497h-3.456L135.614,121.839z
				 M138.6,132.717l-0.879-6.462l-0.879,6.462H138.6z"/>
			<path fill="#010202" d="M144.55,121.839h4.314c1.077,0,1.994,0.112,2.75,0.337c0.757,0.225,1.367,0.658,1.83,1.299
				c0.464,0.641,0.695,1.54,0.695,2.699c0,0.981-0.211,1.745-0.634,2.29c-0.423,0.545-1.022,0.893-1.8,1.043
				c0.954,0.122,1.684,0.524,2.188,1.206c0.504,0.682,0.757,1.608,0.757,2.781c0,3.271-1.67,4.907-5.01,4.907h-5.092V121.839z
				 M148.926,128.464c0.777,0,1.305-0.178,1.585-0.532c0.279-0.354,0.419-0.906,0.419-1.656c0-0.654-0.178-1.148-0.532-1.482
				s-0.872-0.501-1.554-0.501h-0.634v4.172H148.926z M148.987,135.845c0.776,0,1.325-0.193,1.646-0.582s0.48-0.999,0.48-1.83
				c0-0.94-0.16-1.602-0.48-1.983s-0.876-0.573-1.666-0.573h-0.757v4.969H148.987z"/>
			<path fill="#010202" d="M156.573,121.839h7.442v2.494h-3.782v4.11h2.883v2.535h-2.883v4.948h3.823v2.475h-7.483V121.839z"/>
			<path fill="#010202" d="M165.713,121.839h4.56c1.813,0,3.183,0.32,4.11,0.961c0.927,0.641,1.391,1.778,1.391,3.414
				c0,1.104-0.144,1.984-0.43,2.639s-0.818,1.165-1.595,1.533l2.27,8.016h-3.783l-1.819-7.423h-1.043v7.423h-3.66V121.839z
				 M170.396,128.872c0.736,0,1.25-0.193,1.544-0.582c0.293-0.389,0.439-0.972,0.439-1.748c0-0.75-0.137-1.312-0.409-1.688
				s-0.743-0.562-1.411-0.562h-1.186v4.58H170.396z"/>
			<path fill="#010202" d="M179.311,124.558h-2.494v-2.719h8.648v2.719h-2.474v13.844h-3.681V124.558z"/>
			<path fill="#010202" d="M188.512,121.839h4.171l3.088,16.562h-3.374l-0.552-3.497h-2.434l-0.572,3.497h-3.456L188.512,121.839z
				 M191.497,132.717l-0.879-6.462l-0.88,6.462H191.497z"/>
			<path fill="#010202" d="M202.293,135.988l3.967-6.094l0.246-0.367c0.518-0.777,0.899-1.429,1.145-1.953
				c0.245-0.524,0.368-1.073,0.368-1.646c0-0.463-0.092-0.814-0.276-1.053c-0.184-0.238-0.446-0.357-0.787-0.357
				c-0.518,0-0.879,0.201-1.084,0.603c-0.204,0.402-0.307,0.958-0.307,1.667v0.817h-3.312v-0.879c0-1.554,0.379-2.794,1.135-3.722
				c0.757-0.927,1.926-1.391,3.507-1.391c1.459,0,2.573,0.382,3.344,1.146c0.77,0.764,1.155,1.84,1.155,3.23
				c0,0.627-0.1,1.221-0.297,1.779c-0.197,0.559-0.433,1.063-0.705,1.513c-0.273,0.45-0.695,1.091-1.268,1.922l-3.026,4.52h4.846
				v2.679h-8.649V135.988z"/>
			<path fill="#010202" d="M214.234,137.42c-0.777-0.859-1.166-2.011-1.166-3.456v-7.504c0-1.514,0.379-2.702,1.135-3.568
				c0.757-0.865,1.885-1.299,3.385-1.299c1.499,0,2.624,0.434,3.374,1.299c0.749,0.866,1.124,2.055,1.124,3.568v7.504
				c0,1.432-0.392,2.58-1.176,3.445c-0.784,0.866-1.892,1.299-3.322,1.299C216.129,138.708,215.012,138.278,214.234,137.42z
				 M218.416,135.13c0.129-0.354,0.194-0.771,0.194-1.248v-7.34c0-0.546-0.059-0.999-0.174-1.36
				c-0.116-0.361-0.399-0.542-0.849-0.542c-0.45,0-0.733,0.178-0.849,0.532c-0.116,0.354-0.174,0.811-0.174,1.37v7.34
				c0,1.187,0.341,1.779,1.022,1.779C218.01,135.661,218.286,135.484,218.416,135.13z"/>
			<path fill="#010202" d="M225.931,125.213c-0.15,0.081-0.546,0.259-1.187,0.531c-0.109,0.041-0.279,0.109-0.511,0.204
				c-0.232,0.096-0.423,0.185-0.573,0.266v-2.535c1.636-0.845,2.638-1.458,3.006-1.84h2.679v16.562h-3.414V125.213z"/>
			<path fill="#010202" d="M233.24,137.594c-0.634-0.702-0.951-1.775-0.951-3.221v-0.266h3.19c0,0.735,0.064,1.247,0.194,1.533
				c0.129,0.286,0.412,0.43,0.849,0.43c0.313,0,0.541-0.096,0.685-0.286c0.144-0.191,0.242-0.512,0.297-0.961
				c0.054-0.45,0.081-1.132,0.081-2.045v-1.473c-0.177,0.286-0.456,0.512-0.838,0.675c-0.382,0.164-0.812,0.245-1.288,0.245
				c-1.2,0-2.083-0.463-2.648-1.39c-0.565-0.928-0.849-2.12-0.849-3.579c0-1.812,0.358-3.206,1.074-4.182
				c0.715-0.974,1.87-1.462,3.466-1.462c1.567,0,2.719,0.46,3.455,1.381c0.736,0.92,1.104,2.212,1.104,3.875v6.175
				c0,1.786-0.334,3.166-1.002,4.141s-1.854,1.462-3.558,1.462C234.961,138.646,233.874,138.296,233.24,137.594z M237.585,128.954
				v-2.699c0-0.654-0.074-1.172-0.225-1.554s-0.437-0.572-0.858-0.572c-0.437,0-0.72,0.215-0.849,0.644
				c-0.13,0.43-0.194,1.148-0.194,2.157c0,0.668,0.021,1.176,0.062,1.523c0.04,0.348,0.136,0.627,0.286,0.839
				c0.149,0.211,0.395,0.316,0.736,0.316C236.951,129.608,237.299,129.391,237.585,128.954z"/>
		</g>
		<g>
			<path fill="#010202" d="M37.073,145.973h2.378l3.775,17.676h-2.335l-0.807-4.452h-3.601l-0.851,4.452h-2.313L37.073,145.973z
				 M39.757,157.429l-1.484-7.964l-1.462,7.964H39.757z"/>
			<path fill="#010202" d="M44.884,151.035h2.335v1.79c0.437-0.713,0.884-1.215,1.342-1.506c0.458-0.291,0.941-0.437,1.451-0.437
				c0.131,0,0.254,0.008,0.371,0.021v2.575c-0.466-0.175-0.895-0.262-1.288-0.262c-0.378,0-0.716,0.091-1.015,0.272
				c-0.298,0.183-0.585,0.499-0.862,0.949v9.209h-2.335V151.035z"/>
			<path fill="#010202" d="M52.456,160.811v-8.227h-1.331v-1.55h1.331v-3.688h2.335v3.688h2.029v1.55h-2.029v8.074
				c0,0.509,0.08,0.865,0.24,1.068c0.16,0.204,0.465,0.306,0.917,0.306c0.291,0,0.574-0.021,0.851-0.065v1.724
				c-0.582,0.088-1.12,0.132-1.615,0.132C53.365,163.823,52.456,162.819,52.456,160.811z"/>
			<path fill="#010202" d="M59.766,163.266c-0.539-0.371-0.917-0.92-1.135-1.647s-0.327-1.673-0.327-2.837v-2.881
				c0-1.745,0.272-3.021,0.818-3.829c0.545-0.808,1.516-1.211,2.913-1.211c1.018,0,1.785,0.211,2.302,0.633s0.858,1.015,1.026,1.778
				c0.167,0.764,0.251,1.793,0.251,3.088v1.025h-4.976v2.531c0,0.771,0.113,1.327,0.338,1.669s0.585,0.513,1.08,0.513
				s0.829-0.171,1.004-0.513s0.262-0.861,0.262-1.56v-0.765h2.27v0.48c0,1.324-0.284,2.335-0.851,3.033s-1.469,1.048-2.706,1.048
				C61.061,163.823,60.304,163.638,59.766,163.266z M63.323,156.12v-1.135c0-0.858-0.084-1.473-0.251-1.844
				c-0.167-0.371-0.52-0.557-1.058-0.557c-0.378,0-0.666,0.087-0.862,0.262c-0.197,0.175-0.331,0.462-0.404,0.862
				c-0.073,0.4-0.109,0.979-0.109,1.734v0.677H63.323z"/>
			<path fill="#010202" d="M68.178,162.862c-0.633-0.64-0.993-1.498-1.08-2.574l1.942-0.59c0.116,0.815,0.316,1.419,0.6,1.812
				s0.687,0.589,1.211,0.589c0.407,0,0.724-0.12,0.949-0.359c0.225-0.24,0.338-0.564,0.338-0.972c0-0.363-0.081-0.69-0.24-0.981
				c-0.16-0.291-0.422-0.59-0.786-0.895l-2.16-1.855c-0.495-0.422-0.876-0.869-1.146-1.342c-0.27-0.473-0.404-1.051-0.404-1.734
				c0-0.975,0.291-1.735,0.873-2.28c0.582-0.546,1.375-0.818,2.379-0.818c0.96,0,1.713,0.309,2.258,0.927
				c0.545,0.619,0.862,1.415,0.949,2.39l-1.571,0.589c-0.102-0.712-0.269-1.254-0.501-1.625c-0.233-0.371-0.582-0.557-1.048-0.557
				c-0.378,0-0.68,0.124-0.905,0.371c-0.226,0.247-0.338,0.553-0.338,0.916c0,0.466,0.211,0.888,0.633,1.266l2.226,2.052
				c0.567,0.523,1.007,1.04,1.32,1.549c0.312,0.51,0.469,1.128,0.469,1.854c0,1.048-0.313,1.848-0.938,2.4
				c-0.625,0.554-1.477,0.83-2.553,0.83C69.636,163.823,68.811,163.503,68.178,162.862z"/>
			<path fill="#010202" d="M80.212,145.973h2.313L85.318,159l2.662-13.027h2.248l-3.906,17.676h-2.16L80.212,145.973z"/>
			<path fill="#010202" d="M92.061,146.715h2.335v2.444h-2.335V146.715z M92.061,151.035h2.335v12.613h-2.335V151.035z"/>
			<path fill="#010202" d="M97.352,162.862c-0.633-0.64-0.993-1.498-1.08-2.574l1.942-0.59c0.116,0.815,0.316,1.419,0.6,1.812
				s0.687,0.589,1.211,0.589c0.407,0,0.724-0.12,0.949-0.359c0.225-0.24,0.338-0.564,0.338-0.972c0-0.363-0.081-0.69-0.24-0.981
				c-0.16-0.291-0.422-0.59-0.786-0.895l-2.16-1.855c-0.495-0.422-0.876-0.869-1.146-1.342c-0.27-0.473-0.404-1.051-0.404-1.734
				c0-0.975,0.291-1.735,0.873-2.28c0.582-0.546,1.375-0.818,2.379-0.818c0.96,0,1.713,0.309,2.258,0.927
				c0.545,0.619,0.862,1.415,0.949,2.39l-1.571,0.589c-0.102-0.712-0.269-1.254-0.501-1.625c-0.233-0.371-0.582-0.557-1.048-0.557
				c-0.378,0-0.68,0.124-0.905,0.371c-0.226,0.247-0.338,0.553-0.338,0.916c0,0.466,0.211,0.888,0.633,1.266l2.226,2.052
				c0.567,0.523,1.007,1.04,1.32,1.549c0.312,0.51,0.469,1.128,0.469,1.854c0,1.048-0.313,1.848-0.938,2.4
				c-0.625,0.554-1.477,0.83-2.553,0.83C98.81,163.823,97.984,163.503,97.352,162.862z"/>
			<path fill="#010202" d="M105.415,163.081c-0.291-0.494-0.437-1.105-0.437-1.833v-10.213h2.335v9.515
				c0,0.479,0.073,0.84,0.218,1.08s0.407,0.36,0.786,0.36c0.465,0,1.011-0.263,1.637-0.786v-10.169h2.334v12.613h-2.334v-1.244
				c-1.004,0.946-2.029,1.419-3.077,1.419C106.193,163.823,105.706,163.575,105.415,163.081z"/>
			<path fill="#010202" d="M115.638,163.408c-0.386-0.276-0.688-0.64-0.906-1.091s-0.327-0.924-0.327-1.419
				c0-0.989,0.21-1.792,0.633-2.411c0.422-0.618,0.96-1.109,1.615-1.473s1.563-0.778,2.728-1.244v-0.895
				c0-0.829-0.084-1.414-0.251-1.757c-0.167-0.341-0.505-0.513-1.015-0.513c-0.887,0-1.331,0.597-1.331,1.79v0.633l-2.313-0.088
				c0.029-1.396,0.349-2.426,0.96-3.088c0.611-0.661,1.557-0.992,2.837-0.992c1.208,0,2.084,0.331,2.629,0.992
				c0.545,0.662,0.818,1.662,0.818,3.001v5.761c0,0.945,0.073,1.957,0.218,3.033h-2.139c-0.16-0.829-0.262-1.447-0.305-1.855
				c-0.175,0.567-0.477,1.048-0.906,1.44c-0.429,0.393-0.979,0.59-1.647,0.59C116.456,163.823,116.023,163.684,115.638,163.408z
				 M118.747,161.455c0.291-0.24,0.502-0.469,0.633-0.688v-3.578c-0.625,0.349-1.109,0.651-1.451,0.905
				c-0.342,0.255-0.625,0.549-0.851,0.884s-0.338,0.734-0.338,1.2c0,0.523,0.094,0.928,0.284,1.211
				c0.189,0.284,0.465,0.426,0.829,0.426C118.158,161.815,118.456,161.695,118.747,161.455z"/>
			<path fill="#010202" d="M124.115,146.715h2.335v2.444h-2.335V146.715z M124.115,151.035h2.335v12.613h-2.335V151.035z"/>
			<path fill="#010202" d="M129.406,162.862c-0.633-0.64-0.993-1.498-1.08-2.574l1.942-0.59c0.116,0.815,0.316,1.419,0.6,1.812
				s0.687,0.589,1.211,0.589c0.407,0,0.724-0.12,0.949-0.359c0.225-0.24,0.338-0.564,0.338-0.972c0-0.363-0.081-0.69-0.24-0.981
				c-0.16-0.291-0.422-0.59-0.786-0.895l-2.16-1.855c-0.495-0.422-0.876-0.869-1.146-1.342c-0.27-0.473-0.404-1.051-0.404-1.734
				c0-0.975,0.291-1.735,0.873-2.28c0.582-0.546,1.375-0.818,2.379-0.818c0.96,0,1.713,0.309,2.258,0.927
				c0.545,0.619,0.862,1.415,0.949,2.39l-1.571,0.589c-0.102-0.712-0.269-1.254-0.501-1.625c-0.233-0.371-0.582-0.557-1.048-0.557
				c-0.378,0-0.68,0.124-0.905,0.371c-0.226,0.247-0.338,0.553-0.338,0.916c0,0.466,0.211,0.888,0.633,1.266l2.226,2.052
				c0.567,0.523,1.007,1.04,1.32,1.549c0.312,0.51,0.469,1.128,0.469,1.854c0,1.048-0.313,1.848-0.938,2.4
				c-0.625,0.554-1.477,0.83-2.553,0.83C130.865,163.823,130.039,163.503,129.406,162.862z"/>
			<path fill="#010202" d="M143.339,163.266c-0.539-0.371-0.917-0.92-1.135-1.647s-0.327-1.673-0.327-2.837v-2.881
				c0-1.745,0.272-3.021,0.818-3.829c0.545-0.808,1.516-1.211,2.913-1.211c1.018,0,1.785,0.211,2.302,0.633s0.858,1.015,1.025,1.778
				s0.251,1.793,0.251,3.088v1.025h-4.975v2.531c0,0.771,0.113,1.327,0.338,1.669s0.585,0.513,1.08,0.513
				c0.494,0,0.829-0.171,1.004-0.513s0.262-0.861,0.262-1.56v-0.765h2.27v0.48c0,1.324-0.284,2.335-0.852,3.033
				s-1.469,1.048-2.705,1.048C144.633,163.823,143.877,163.638,143.339,163.266z M146.896,156.12v-1.135
				c0-0.858-0.084-1.473-0.251-1.844c-0.168-0.371-0.521-0.557-1.059-0.557c-0.378,0-0.665,0.087-0.861,0.262
				c-0.197,0.175-0.331,0.462-0.404,0.862c-0.073,0.4-0.109,0.979-0.109,1.734v0.677H146.896z"/>
			<path fill="#010202" d="M158.438,147.806h-2.99v-1.833h8.357v1.833h-2.901v15.843h-2.466V147.806z"/>
			<path fill="#010202" d="M166.272,163.266c-0.539-0.371-0.917-0.92-1.135-1.647c-0.219-0.728-0.327-1.673-0.327-2.837v-2.881
				c0-1.745,0.272-3.021,0.818-3.829c0.545-0.808,1.516-1.211,2.913-1.211c1.018,0,1.785,0.211,2.302,0.633s0.858,1.015,1.025,1.778
				s0.251,1.793,0.251,3.088v1.025h-4.976v2.531c0,0.771,0.113,1.327,0.339,1.669s0.585,0.513,1.08,0.513
				c0.494,0,0.829-0.171,1.004-0.513s0.262-0.861,0.262-1.56v-0.765h2.27v0.48c0,1.324-0.284,2.335-0.852,3.033
				s-1.469,1.048-2.705,1.048C167.566,163.823,166.811,163.638,166.272,163.266z M169.829,156.12v-1.135
				c0-0.858-0.084-1.473-0.251-1.844c-0.168-0.371-0.521-0.557-1.059-0.557c-0.378,0-0.665,0.087-0.861,0.262
				c-0.197,0.175-0.331,0.462-0.404,0.862s-0.109,0.979-0.109,1.734v0.677H169.829z"/>
			<path fill="#010202" d="M175.393,163.223c-0.538-0.4-0.905-0.96-1.102-1.681c-0.196-0.72-0.295-1.633-0.295-2.738v-2.902
				c0-1.135,0.099-2.065,0.295-2.793c0.196-0.727,0.563-1.283,1.102-1.669s1.302-0.578,2.291-0.578c0.902,0,1.604,0.146,2.106,0.437
				s0.851,0.724,1.047,1.298c0.196,0.575,0.295,1.32,0.295,2.236v0.742h-2.117v-0.764c0-0.829-0.091-1.407-0.272-1.734
				s-0.527-0.491-1.036-0.491c-0.394,0-0.685,0.087-0.873,0.262c-0.189,0.175-0.32,0.458-0.393,0.852
				c-0.073,0.393-0.109,0.967-0.109,1.724v3.972c0,0.728,0.044,1.283,0.131,1.669s0.229,0.654,0.426,0.808
				c0.196,0.152,0.477,0.229,0.84,0.229c0.538,0,0.887-0.178,1.048-0.534c0.159-0.356,0.239-0.905,0.239-1.647v-1.025h2.117v0.872
				c0,1.368-0.251,2.387-0.753,3.056s-1.4,1.004-2.695,1.004C176.694,163.823,175.931,163.623,175.393,163.223z"/>
			<path fill="#010202" d="M183.205,151.035h2.335v1.244c1.004-0.945,2.029-1.418,3.076-1.418c0.684,0,1.171,0.247,1.462,0.741
				c0.291,0.495,0.437,1.106,0.437,1.833v10.213h-2.335v-9.536c0-0.48-0.072-0.836-0.218-1.069
				c-0.146-0.232-0.407-0.349-0.785-0.349c-0.466,0-1.012,0.262-1.637,0.785v10.169h-2.335V151.035z"/>
			<path fill="#010202" d="M193.406,162.634c-0.561-0.793-0.841-1.945-0.841-3.459v-3.666c0-1.513,0.28-2.665,0.841-3.459
				c0.56-0.792,1.509-1.188,2.848-1.188c1.323,0,2.266,0.396,2.825,1.188c0.561,0.794,0.841,1.946,0.841,3.459v3.666
				c0,1.514-0.28,2.666-0.841,3.459c-0.56,0.793-1.502,1.189-2.825,1.189C194.915,163.823,193.966,163.427,193.406,162.634z
				 M197.17,161.727c0.189-0.247,0.306-0.553,0.35-0.916c0.043-0.363,0.065-0.858,0.065-1.484v-3.949
				c0-0.625-0.022-1.124-0.065-1.495c-0.044-0.37-0.16-0.68-0.35-0.927s-0.494-0.371-0.916-0.371c-0.423,0-0.731,0.124-0.928,0.371
				s-0.316,0.557-0.36,0.927c-0.043,0.371-0.065,0.87-0.065,1.495v3.949c0,0.626,0.022,1.121,0.065,1.484
				c0.044,0.363,0.164,0.669,0.36,0.916c0.196,0.248,0.505,0.371,0.928,0.371C196.676,162.099,196.98,161.975,197.17,161.727z"/>
			<path fill="#010202" d="M202.276,145.973h2.335v17.676h-2.335V145.973z"/>
			<path fill="#010202" d="M207.677,162.634c-0.561-0.793-0.841-1.945-0.841-3.459v-3.666c0-1.513,0.28-2.665,0.841-3.459
				c0.56-0.792,1.509-1.188,2.848-1.188c1.323,0,2.266,0.396,2.825,1.188c0.561,0.794,0.841,1.946,0.841,3.459v3.666
				c0,1.514-0.28,2.666-0.841,3.459c-0.56,0.793-1.502,1.189-2.825,1.189C209.186,163.823,208.236,163.427,207.677,162.634z
				 M211.44,161.727c0.189-0.247,0.306-0.553,0.35-0.916c0.043-0.363,0.065-0.858,0.065-1.484v-3.949
				c0-0.625-0.022-1.124-0.065-1.495c-0.044-0.37-0.16-0.68-0.35-0.927s-0.494-0.371-0.916-0.371c-0.423,0-0.731,0.124-0.928,0.371
				s-0.316,0.557-0.36,0.927c-0.043,0.371-0.065,0.87-0.065,1.495v3.949c0,0.626,0.022,1.121,0.065,1.484
				c0.044,0.363,0.164,0.669,0.36,0.916c0.196,0.248,0.505,0.371,0.928,0.371C210.946,162.099,211.251,161.975,211.44,161.727z"/>
			<path fill="#010202" d="M216.678,166.975c-0.728-0.386-1.091-0.985-1.091-1.8c0-0.553,0.171-1.033,0.513-1.44
				s0.774-0.734,1.298-0.981c-0.393-0.116-0.694-0.299-0.905-0.546s-0.316-0.517-0.316-0.808c0-0.437,0.109-0.814,0.327-1.135
				c0.219-0.319,0.574-0.705,1.069-1.156c-0.495-0.378-0.862-0.854-1.102-1.43c-0.24-0.574-0.36-1.349-0.36-2.323
				c0-1.47,0.302-2.586,0.905-3.35s1.487-1.146,2.651-1.146c0.669,0,1.215,0.116,1.637,0.349c0.422,0.233,0.742,0.582,0.96,1.048
				c0.102-0.16,0.316-0.375,0.644-0.644c0.327-0.27,0.681-0.491,1.059-0.666l0.35-0.152l0.589,1.505
				c-0.291,0.059-0.695,0.183-1.211,0.371c-0.517,0.189-0.826,0.335-0.928,0.437c0.102,0.262,0.192,0.626,0.272,1.091
				c0.08,0.466,0.12,0.873,0.12,1.223c0,1.382-0.27,2.455-0.807,3.219c-0.539,0.764-1.434,1.146-2.685,1.146
				c-0.393,0-0.793-0.051-1.2-0.153c-0.276,0.408-0.414,0.728-0.414,0.96c0,0.161,0.083,0.288,0.251,0.383
				c0.167,0.095,0.433,0.156,0.796,0.185l1.964,0.175c0.989,0.088,1.724,0.386,2.204,0.895c0.48,0.51,0.72,1.237,0.72,2.183
				c0,2.095-1.462,3.142-4.386,3.142C218.38,167.554,217.405,167.361,216.678,166.975z M221.609,165.427
				c0.393-0.196,0.589-0.513,0.589-0.949c0-0.407-0.124-0.709-0.371-0.905c-0.247-0.197-0.698-0.324-1.353-0.382l-1.985-0.175
				c-0.306,0.306-0.539,0.574-0.699,0.808c-0.16,0.232-0.239,0.486-0.239,0.764c0,0.393,0.163,0.68,0.49,0.861
				c0.328,0.182,0.906,0.273,1.735,0.273S221.217,165.623,221.609,165.427z M220.889,157.495c0.189-0.437,0.284-1.149,0.284-2.139
				c0-1.004-0.095-1.735-0.284-2.193c-0.188-0.458-0.589-0.688-1.2-0.688c-0.61,0-1.021,0.229-1.232,0.688s-0.316,1.189-0.316,2.193
				c0,0.902,0.105,1.593,0.316,2.072c0.211,0.48,0.614,0.721,1.211,0.721C220.292,158.149,220.7,157.931,220.889,157.495z"/>
			<path fill="#010202" d="M225.973,146.715h2.335v2.444h-2.335V146.715z M225.973,151.035h2.335v12.613h-2.335V151.035z"/>
			<path fill="#010202" d="M231.788,163.408c-0.386-0.276-0.688-0.64-0.905-1.091c-0.219-0.451-0.327-0.924-0.327-1.419
				c0-0.989,0.21-1.792,0.633-2.411c0.422-0.618,0.96-1.109,1.614-1.473c0.655-0.363,1.563-0.778,2.728-1.244v-0.895
				c0-0.829-0.084-1.414-0.251-1.757c-0.167-0.341-0.505-0.513-1.015-0.513c-0.887,0-1.331,0.597-1.331,1.79v0.633l-2.312-0.088
				c0.028-1.396,0.349-2.426,0.96-3.088c0.611-0.661,1.557-0.992,2.837-0.992c1.207,0,2.084,0.331,2.629,0.992
				c0.546,0.662,0.818,1.662,0.818,3.001v5.761c0,0.945,0.073,1.957,0.219,3.033h-2.139c-0.16-0.829-0.262-1.447-0.306-1.855
				c-0.175,0.567-0.477,1.048-0.905,1.44c-0.43,0.393-0.979,0.59-1.647,0.59C232.606,163.823,232.174,163.684,231.788,163.408z
				 M234.897,161.455c0.291-0.24,0.502-0.469,0.633-0.688v-3.578c-0.625,0.349-1.109,0.651-1.451,0.905
				c-0.342,0.255-0.625,0.549-0.851,0.884s-0.338,0.734-0.338,1.2c0,0.523,0.094,0.928,0.283,1.211
				c0.189,0.284,0.466,0.426,0.829,0.426C234.309,161.815,234.606,161.695,234.897,161.455z"/>
			<path fill="#010202" d="M240.56,162.862c-0.633-0.64-0.992-1.498-1.08-2.574l1.942-0.59c0.116,0.815,0.316,1.419,0.601,1.812
				c0.283,0.393,0.687,0.589,1.211,0.589c0.407,0,0.724-0.12,0.949-0.359c0.225-0.24,0.338-0.564,0.338-0.972
				c0-0.363-0.08-0.69-0.24-0.981s-0.422-0.59-0.785-0.895l-2.16-1.855c-0.495-0.422-0.877-0.869-1.146-1.342
				c-0.27-0.473-0.404-1.051-0.404-1.734c0-0.975,0.291-1.735,0.873-2.28c0.582-0.546,1.375-0.818,2.379-0.818
				c0.96,0,1.713,0.309,2.258,0.927c0.546,0.619,0.862,1.415,0.949,2.39l-1.571,0.589c-0.102-0.712-0.269-1.254-0.501-1.625
				c-0.233-0.371-0.582-0.557-1.048-0.557c-0.379,0-0.681,0.124-0.905,0.371c-0.226,0.247-0.339,0.553-0.339,0.916
				c0,0.466,0.211,0.888,0.633,1.266l2.226,2.052c0.567,0.523,1.008,1.04,1.32,1.549c0.312,0.51,0.47,1.128,0.47,1.854
				c0,1.048-0.313,1.848-0.938,2.4c-0.626,0.554-1.477,0.83-2.553,0.83C242.019,163.823,241.192,163.503,240.56,162.862z"/>
		</g>
	</g>
	<polygon fill="#010202" points="273.991,180.442 6.009,180.442 6.009,173.765 4.424,173.765 4.424,182.026 275.576,182.026 
		275.576,173.765 273.991,173.765 	"/>
	<g>
		<path fill="#010202" d="M176.823,106.883V7.974H135.63v98.909H4.424v8.261h1.584v-6.677h267.983v6.677h1.584v-8.261H176.823z
			 M175.239,106.883h-38.04l0.156-97.325h37.885V106.883z"/>
		<g>
			<polygon fill="#FFFFFF" points="118,38.698 118,107.698 118,137.698 136,107.698 136,38.698 136,8.698 			"/>
			<path fill="#010202" d="M117.89,138.698c-0.089,0-0.123-0.012-0.212-0.036c-0.433-0.12-0.678-0.514-0.678-0.964v-99
				c0-0.181-0.006-0.134,0.087-0.29l18.298-30.434l1.71,1.584l-0.162,97.325c0,0.181-0.089,1.174-0.182,1.33l-18.002,30
				C118.565,138.519,118.234,138.698,117.89,138.698z M119,38.975v95.113l16.398-26.843l0.042-95.719L119,38.975z"/>
		</g>
	</g>
</g>
</svg>
